{
  "entity.aerwhale_king.idle": {
    "subtitle": "subtitles.entity.lost_aether_content.aerwhale_king.idle",
    "sounds": [
      "lost_aether_content:entity/aerwhale_king/idle1",
      "lost_aether_content:entity/aerwhale_king/idle2",
      "lost_aether_content:entity/aerwhale_king/idle3"
    ]
  },
  "entity.aerwhale_king.hurt": {
    "subtitle": "subtitles.entity.lost_aether_content.aerwhale_king.hurt",
    "sounds": [
      "lost_aether_content:entity/aerwhale_king/hurt1",
      "lost_aether_content:entity/aerwhale_king/hurt2",
      "lost_aether_content:entity/aerwhale_king/hurt3"
    ]
  },
  "entity.aerwhale_king.death": {
    "subtitle": "subtitles.entity.lost_aether_content.aerwhale_king.death",
    "sounds": [
      "lost_aether_content:entity/aerwhale_king/death"
    ]
  },
  "entity.aerwhale_king.charge": {
    "subtitle": "subtitles.entity.lost_aether_content.aerwhale_king.charge",
    "sounds": [
      "lost_aether_content:entity/aerwhale_king/charge_1",
      "lost_aether_content:entity/aerwhale_king/charge_2"
    ]
  },
  "entity.aerwhale_king.shoot": {
    "subtitle": "subtitles.entity.lost_aether_content.aerwhale_king.shoot",
    "sounds": [
      "lost_aether_content:entity/aerwhale_king/shoot_1",
      "lost_aether_content:entity/aerwhale_king/shoot_2"
    ]
  },
  "entity.aerwhale_king.spout_fog": {
    "subtitle": "subtitles.entity.lost_aether_content.aerwhale_king.shoot",
    "sounds": [
      "lost_aether_content:entity/aerwhale_king/spout_fog_1"
    ]
  },
  "entity.aerwhale_king.idle_distant": {
    "subtitle": "subtitles.entity.lost_aether_content.aerwhale_king.idle",
    "sounds": [
      "lost_aether_content:entity/aerwhale_king/idle_distant_1",
      "lost_aether_content:entity/aerwhale_king/idle_distant_2",
      "lost_aether_content:entity/aerwhale_king/idle_distant_3"
    ]
  },
  "entity.cloud_shot.puff": {
    "subtitle": "subtitles.entity.lost_aether_content.cloud_shot.puff",
    "sounds": [
      "lost_aether_content:entity/cloud_shot/puff_1",
      "lost_aether_content:entity/cloud_shot/puff_2",
      "lost_aether_content:entity/cloud_shot/puff_3"
    ]
  },
  "entity.flying_cow.idle_override": {
    "sounds": [
      "lost_aether_content:entity/flying_cow/say1",
      "lost_aether_content:entity/flying_cow/say2",
      "lost_aether_content:entity/flying_cow/say3",
      "lost_aether_content:entity/flying_cow/say4"
    ],
    "subtitle": "subtitles.entity.flying_cow.ambient"
  },
  "entity.flying_cow.hurt_override": {
    "sounds": [
      "lost_aether_content:entity/flying_cow/hurt1",
      "lost_aether_content:entity/flying_cow/hurt2",
      "lost_aether_content:entity/flying_cow/hurt3"
    ],
    "subtitle": "subtitles.entity.flying_cow.hurt"
  },
  "entity.flying_cow.death_override": {
    "sounds": [
      "lost_aether_content:entity/flying_cow/hurt1",
      "lost_aether_content:entity/flying_cow/hurt2",
      "lost_aether_content:entity/flying_cow/hurt3"
    ],
    "subtitle": "subtitles.entity.flying_cow.death"
  },
  "entity.phyg.idle_override": {
    "sounds": [
      "lost_aether_content:entity/phyg/say1",
      "lost_aether_content:entity/phyg/say2",
      "lost_aether_content:entity/phyg/say3"
    ],
    "subtitle": "subtitles.entity.phyg.ambient"
  },
  "entity.phyg.hurt_override": {
    "sounds": [
      "lost_aether_content:entity/phyg/say1",
      "lost_aether_content:entity/phyg/say2",
      "lost_aether_content:entity/phyg/say3"
    ],
    "subtitle": "subtitles.entity.phyg.hurt"
  },
  "entity.phyg.death_override": {
    "sounds": [
      "lost_aether_content:entity/phyg/death"
    ],
    "subtitle": "subtitles.entity.phyg.death"
  },
  "entity.sheepuff.idle_override": {
    "sounds": [
      "lost_aether_content:entity/sheepuff/say1",
      "lost_aether_content:entity/sheepuff/say2",
      "lost_aether_content:entity/sheepuff/say3"
    ],
    "subtitle": "subtitles.entity.sheepuff.ambient"
  },
  "entity.sheepuff.hurt_override": {
    "sounds": [
      "lost_aether_content:entity/sheepuff/say1",
      "lost_aether_content:entity/sheepuff/say2",
      "lost_aether_content:entity/sheepuff/say3"
    ],
    "subtitle": "subtitles.entity.sheepuff.hurt"
  },
  "entity.sheepuff.death_override": {
    "sounds": [
      "lost_aether_content:entity/sheepuff/say1",
      "lost_aether_content:entity/sheepuff/say2",
      "lost_aether_content:entity/sheepuff/say3"
    ],
    "subtitle": "subtitles.entity.sheepuff.death"
  }
}