{
  "parent": "minecraft:recipes/root",
  "criteria": {
    "has_the_recipe": {
      "conditions": {
        "recipe": "lost_aether_content:zanite_shield_repairing"
      },
      "trigger": "minecraft:recipe_unlocked"
    },
    "has_zanite_shield": {
      "conditions": {
        "items": [
          {
            "items": [
              "lost_aether_content:zanite_shield"
            ]
          }
        ]
      },
      "trigger": "minecraft:inventory_changed"
    }
  },
  "requirements": [
    [
      "has_zanite_shield",
      "has_the_recipe"
    ]
  ],
  "rewards": {
    "recipes": [
      "lost_aether_content:zanite_shield_repairing"
    ]
  }
}