{
	"credit": "Made with Blockbench",
	"parent": "lost_aether_content:item/shield_of_emile",
	"display": {
		"thirdperson_righthand": {
			"rotation": [45, -45, 0],
			"translation": [4.5, 3.25, 4.75]
		},
		"thirdperson_lefthand": {
			"rotation": [45, -45, 0],
			"translation": [4.5, 3.25, 4.75]
		},
		"firstperson_righthand": {
			"rotation": [0, 0, 5],
			"translation": [-5.25, 5.5, -2],
			"scale": [1.25, 1.25, 1.25]
		},
		"firstperson_lefthand": {
			"rotation": [0, 0, 5],
			"translation": [-5.25, 5.5, -2],
			"scale": [1.25, 1.25, 1.25]
		}
	}
}