{
  "type": "aether:aercloud",
  "config": {
    "blocks": {
      "type": "minecraft:simple_state_provider",
      "state": {
        "Name": "lost_aether_content:pink_aercloud",
        "Properties": {
          "double_drops": "true"
        }
      }
    },
    "bounds": 1
  }
}